{
  "count": 356,
  "next": "https://ll.thespacedevs.com/2.0.0/launch/upcoming/?limit=10&offset=10",
  "previous": null,
  "results": [
    {
      "id": "0098c032-73de-4c6f-8d73-5d68b9a12fdf",
      "url": "https://ll.thespacedevs.com/2.0.0/launch/0098c032-73de-4c6f-8d73-5d68b9a12fdf/",
      "launch_library_id": 1585,
      "slug": "falcon-heavy-otv-7-x-37b-ussf-52",
      "name": "Falcon Heavy | OTV-7 (X-37B) (USSF-52)",
      "status": { "id": 1, "name": "Go" },
      "net": "2023-12-13T01:14:00Z",
      "window_end": "2023-12-13T01:24:00Z",
      "window_start": "2023-12-13T01:14:00Z",
      "inhold": false,
      "tbdtime": false,
      "tbddate": false,
      "probability": 60,
      "holdreason": "",
      "failreason": "",
      "hashtag": null,
      "launch_service_provider": {
        "id": 121,
        "url": "https://ll.thespacedevs.com/2.0.0/agencies/121/",
        "name": "SpaceX",
        "type": "Commercial"
      },
      "rocket": {
        "id": 162,
        "configuration": {
          "id": 161,
          "launch_library_id": 58,
          "url": "https://ll.thespacedevs.com/2.0.0/config/launcher/161/",
          "name": "Falcon Heavy",
          "family": "Falcon",
          "full_name": "Falcon Heavy",
          "variant": "Heavy"
        }
      },
      "mission": {
        "id": 6447,
        "launch_library_id": null,
        "name": "OTV-7 (X-37B) (USSF-52)",
        "description": "It is the seventh flight of the X-37B program. United States Air Force Orbital Test Vehicle is built by Boeing. It's an uncrewed 5000 kg, 8.8 m-long reusable mini-spaceplane capable of autonomous re-entry and landing.",
        "launch_designator": null,
        "type": "Government/Top Secret",
        "orbit": { "id": 25, "name": "Unknown", "abbrev": "N/A" }
      },
      "pad": {
        "id": 87,
        "url": "https://ll.thespacedevs.com/2.0.0/pad/87/",
        "agency_id": 121,
        "name": "Launch Complex 39A",
        "info_url": null,
        "wiki_url": "https://en.wikipedia.org/wiki/Kennedy_Space_Center_Launch_Complex_39#Launch_Pad_39A",
        "map_url": "https://www.google.com/maps?q=28.60822681,-80.60428186",
        "latitude": "28.60822681",
        "longitude": "-80.60428186",
        "location": {
          "id": 27,
          "url": "https://ll.thespacedevs.com/2.0.0/location/27/",
          "name": "Kennedy Space Center, FL, USA",
          "country_code": "USA",
          "map_image": "https://spacelaunchnow-prod-east.nyc3.digitaloceanspaces.com/media/launch_images/location_27_20200803142447.jpg",
          "total_launch_count": 225,
          "total_landing_count": 0
        },
        "map_image": "https://spacelaunchnow-prod-east.nyc3.digitaloceanspaces.com/media/launch_images/pad_87_20200803143537.jpg",
        "total_launch_count": 167
      },
      "webcast_live": false,
      "image": "https://spacelaunchnow-prod-east.nyc3.digitaloceanspaces.com/media/launch_images/falcon2520heav_image_20231210135716.jpeg",
      "infographic": null,
      "program": []
    },
    {
      "id": "2918b5f6-1340-4c73-bb75-4f9b5e16999f",
      "url": "https://ll.thespacedevs.com/2.0.0/launch/2918b5f6-1340-4c73-bb75-4f9b5e16999f/",
      "launch_library_id": null,
      "slug": "electron-the-moon-god-awakens-qps-sar-5",
      "name": "Electron | The Moon God Awakens (QPS-SAR-5)",
      "status": { "id": 1, "name": "Go" },
      "net": "2023-12-13T04:00:00Z",
      "window_end": "2023-12-13T06:00:00Z",
      "window_start": "2023-12-13T04:00:00Z",
      "inhold": false,
      "tbdtime": false,
      "tbddate": false,
      "probability": null,
      "holdreason": "",
      "failreason": "",
      "hashtag": null,
      "launch_service_provider": {
        "id": 147,
        "url": "https://ll.thespacedevs.com/2.0.0/agencies/147/",
        "name": "Rocket Lab",
        "type": "Commercial"
      },
      "rocket": {
        "id": 7990,
        "configuration": {
          "id": 26,
          "launch_library_id": 148,
          "url": "https://ll.thespacedevs.com/2.0.0/config/launcher/26/",
          "name": "Electron",
          "family": "Electron",
          "full_name": "Electron",
          "variant": ""
        }
      },
      "mission": {
        "id": 6516,
        "launch_library_id": null,
        "name": "The Moon God Awakens (QPS-SAR-5)",
        "description": "QPS-SAR-5 is a synthetic-aperture radar (SAR) satellite that will join a constellation after QPS-SAR-6 already in orbit. iQPS’s satellites are small, high-performance SAR satellites that use a lightweight, large, stowable antenna to collect high resolution images of Earth, even through clouds and adverse weather conditions.",
        "launch_designator": null,
        "type": "Earth Science",
        "orbit": { "id": 8, "name": "Low Earth Orbit", "abbrev": "LEO" }
      },
      "pad": {
        "id": 185,
        "url": "https://ll.thespacedevs.com/2.0.0/pad/185/",
        "agency_id": 147,
        "name": "Rocket Lab Launch Complex 1B",
        "info_url": null,
        "wiki_url": "https://en.wikipedia.org/wiki/Rocket_Lab_Launch_Complex_1",
        "map_url": "https://www.google.com/maps?q=-39.262833,177.864469",
        "latitude": "-39.262833",
        "longitude": "177.864469",
        "location": {
          "id": 10,
          "url": "https://ll.thespacedevs.com/2.0.0/location/10/",
          "name": "Onenui Station, Mahia Peninsula, New Zealand",
          "country_code": "NZL",
          "map_image": "https://spacelaunchnow-prod-east.nyc3.digitaloceanspaces.com/media/launch_images/location_10_20200803142509.jpg",
          "total_launch_count": 38,
          "total_landing_count": 16
        },
        "map_image": "https://spacelaunchnow-prod-east.nyc3.digitaloceanspaces.com/media/launch_images/pad_185_20200803143540.jpg",
        "total_launch_count": 12
      },
      "webcast_live": false,
      "image": "https://spacelaunchnow-prod-east.nyc3.digitaloceanspaces.com/media/launcher_images/electron_image_20190705175640.jpeg",
      "infographic": null,
      "program": []
    },
    {
      "id": "7e34bf07-7031-4dd7-844f-7067107489a3",
      "url": "https://ll.thespacedevs.com/2.0.0/launch/7e34bf07-7031-4dd7-844f-7067107489a3/",
      "launch_library_id": null,
      "slug": "falcon-9-block-5-starlink-group-6-34",
      "name": "Falcon 9 Block 5 | Starlink Group 6-34",
      "status": { "id": 1, "name": "Go" },
      "net": "2023-12-13T04:02:40Z",
      "window_end": "2023-12-13T07:58:50Z",
      "window_start": "2023-12-13T04:02:40Z",
      "inhold": false,
      "tbdtime": false,
      "tbddate": false,
      "probability": 60,
      "holdreason": "",
      "failreason": "",
      "hashtag": null,
      "launch_service_provider": {
        "id": 121,
        "url": "https://ll.thespacedevs.com/2.0.0/agencies/121/",
        "name": "SpaceX",
        "type": "Commercial"
      },
      "rocket": {
        "id": 8036,
        "configuration": {
          "id": 164,
          "launch_library_id": 188,
          "url": "https://ll.thespacedevs.com/2.0.0/config/launcher/164/",
          "name": "Falcon 9",
          "family": "Falcon",
          "full_name": "Falcon 9 Block 5",
          "variant": "Block 5"
        }
      },
      "mission": {
        "id": 6581,
        "launch_library_id": null,
        "name": "Starlink Group 6-34",
        "description": "A batch of satellites for the Starlink mega-constellation - SpaceX's project for space-based Internet communication system.",
        "launch_designator": null,
        "type": "Communications",
        "orbit": { "id": 8, "name": "Low Earth Orbit", "abbrev": "LEO" }
      },
      "pad": {
        "id": 80,
        "url": "https://ll.thespacedevs.com/2.0.0/pad/80/",
        "agency_id": 121,
        "name": "Space Launch Complex 40",
        "info_url": null,
        "wiki_url": "https://en.wikipedia.org/wiki/Cape_Canaveral_Air_Force_Station_Space_Launch_Complex_40",
        "map_url": "https://www.google.com/maps?q=28.56194122,-80.57735736",
        "latitude": "28.56194122",
        "longitude": "-80.57735736",
        "location": {
          "id": 12,
          "url": "https://ll.thespacedevs.com/2.0.0/location/12/",
          "name": "Cape Canaveral, FL, USA",
          "country_code": "USA",
          "map_image": "https://spacelaunchnow-prod-east.nyc3.digitaloceanspaces.com/media/launch_images/location_12_20200803142519.jpg",
          "total_launch_count": 924,
          "total_landing_count": 40
        },
        "map_image": "https://spacelaunchnow-prod-east.nyc3.digitaloceanspaces.com/media/launch_images/pad_80_20200803143323.jpg",
        "total_launch_count": 215
      },
      "webcast_live": false,
      "image": "https://spacelaunchnow-prod-east.nyc3.digitaloceanspaces.com/media/launch_images/falcon2520925_image_20230922124006.png",
      "infographic": null,
      "program": []
    },
    {
      "id": "161dbc75-e973-44f7-a346-6254aec99900",
      "url": "https://ll.thespacedevs.com/2.0.0/launch/161dbc75-e973-44f7-a346-6254aec99900/",
      "launch_library_id": null,
      "slug": "falcon-9-block-5-starlink-group-7-9",
      "name": "Falcon 9 Block 5 | Starlink Group 7-9",
      "status": { "id": 2, "name": "TBD" },
      "net": "2023-12-14T04:59:00Z",
      "window_end": "2023-12-14T09:24:00Z",
      "window_start": "2023-12-14T04:59:00Z",
      "inhold": false,
      "tbdtime": false,
      "tbddate": false,
      "probability": null,
      "holdreason": "",
      "failreason": "",
      "hashtag": null,
      "launch_service_provider": {
        "id": 121,
        "url": "https://ll.thespacedevs.com/2.0.0/agencies/121/",
        "name": "SpaceX",
        "type": "Commercial"
      },
      "rocket": {
        "id": 8032,
        "configuration": {
          "id": 164,
          "launch_library_id": 188,
          "url": "https://ll.thespacedevs.com/2.0.0/config/launcher/164/",
          "name": "Falcon 9",
          "family": "Falcon",
          "full_name": "Falcon 9 Block 5",
          "variant": "Block 5"
        }
      },
      "mission": {
        "id": 6564,
        "launch_library_id": null,
        "name": "Starlink Group 7-9",
        "description": "A batch of satellites for the Starlink mega-constellation - SpaceX's project for space-based Internet communication system.",
        "launch_designator": null,
        "type": "Communications",
        "orbit": { "id": 8, "name": "Low Earth Orbit", "abbrev": "LEO" }
      },
      "pad": {
        "id": 16,
        "url": "https://ll.thespacedevs.com/2.0.0/pad/16/",
        "agency_id": null,
        "name": "Space Launch Complex 4E",
        "info_url": null,
        "wiki_url": "",
        "map_url": "https://www.google.com/maps?q=34.632,-120.611",
        "latitude": "34.632",
        "longitude": "-120.611",
        "location": {
          "id": 11,
          "url": "https://ll.thespacedevs.com/2.0.0/location/11/",
          "name": "Vandenberg SFB, CA, USA",
          "country_code": "USA",
          "map_image": "https://spacelaunchnow-prod-east.nyc3.digitaloceanspaces.com/media/launch_images/location_11_20200803142416.jpg",
          "total_launch_count": 737,
          "total_landing_count": 14
        },
        "map_image": "https://spacelaunchnow-prod-east.nyc3.digitaloceanspaces.com/media/launch_images/pad_16_20200803143532.jpg",
        "total_launch_count": 127
      },
      "webcast_live": false,
      "image": "https://spacelaunchnow-prod-east.nyc3.digitaloceanspaces.com/media/launch_images/falcon2520925_image_20230920071550.png",
      "infographic": null,
      "program": []
    },
    {
      "id": "ea4825db-6866-40dd-932d-bacdb1c705ab",
      "url": "https://ll.thespacedevs.com/2.0.0/launch/ea4825db-6866-40dd-932d-bacdb1c705ab/",
      "launch_library_id": null,
      "slug": "long-march-2fg-chinese-reusable-space-vehicle-3",
      "name": "Long March 2F/G | Chinese Reusable Space Vehicle (???)",
      "status": { "id": 1, "name": "Go" },
      "net": "2023-12-14T14:10:00Z",
      "window_end": "2023-12-14T17:10:00Z",
      "window_start": "2023-12-14T14:01:00Z",
      "inhold": false,
      "tbdtime": false,
      "tbddate": false,
      "probability": null,
      "holdreason": "",
      "failreason": "",
      "hashtag": null,
      "launch_service_provider": {
        "id": 88,
        "url": "https://ll.thespacedevs.com/2.0.0/agencies/88/",
        "name": "China Aerospace Science and Technology Corporation",
        "type": "Government"
      },
      "rocket": {
        "id": 8144,
        "configuration": {
          "id": 84,
          "launch_library_id": 111,
          "url": "https://ll.thespacedevs.com/2.0.0/config/launcher/84/",
          "name": "Long March 2",
          "family": "Long March 2",
          "full_name": "Long March 2F/G",
          "variant": "F/G"
        }
      },
      "mission": {
        "id": 6703,
        "launch_library_id": null,
        "name": "Chinese Reusable Space Vehicle (???)",
        "description": "Probable 3rd flight of the Chinese spaceplane capable of returning to Earth, which flew in orbit September 4 - 6, 2020 and August 4, 2022 - May 8, 2023.",
        "launch_designator": null,
        "type": "Government/Top Secret",
        "orbit": { "id": 8, "name": "Low Earth Orbit", "abbrev": "LEO" }
      },
      "pad": {
        "id": 37,
        "url": "https://ll.thespacedevs.com/2.0.0/pad/37/",
        "agency_id": null,
        "name": "Launch Area 4 (SLS-1 / 921)",
        "info_url": null,
        "wiki_url": "https://en.wikipedia.org/wiki/Jiuquan_Launch_Area_4",
        "map_url": "https://www.google.com/maps?q=40.957893,100.290944",
        "latitude": "40.957893",
        "longitude": "100.290944",
        "location": {
          "id": 17,
          "url": "https://ll.thespacedevs.com/2.0.0/location/17/",
          "name": "Jiuquan Satellite Launch Center, People's Republic of China",
          "country_code": "CHN",
          "map_image": "https://spacelaunchnow-prod-east.nyc3.digitaloceanspaces.com/media/launch_images/location_17_20200803142429.jpg",
          "total_launch_count": 213,
          "total_landing_count": 0
        },
        "map_image": "https://spacelaunchnow-prod-east.nyc3.digitaloceanspaces.com/media/launch_images/pad_37_20200803143603.jpg",
        "total_launch_count": 21
      },
      "webcast_live": false,
      "image": "https://spacelaunchnow-prod-east.nyc3.digitaloceanspaces.com/media/launcher_images/long_march_2_image_20210908195835.jpeg",
      "infographic": null,
      "program": []
    },
    {
      "id": "ebefa135-366c-4a21-afdf-af4d18ea360b",
      "url": "https://ll.thespacedevs.com/2.0.0/launch/ebefa135-366c-4a21-afdf-af4d18ea360b/",
      "launch_library_id": null,
      "slug": "long-march-5-unknown-payload",
      "name": "Long March 5 | Unknown Payload",
      "status": { "id": 1, "name": "Go" },
      "net": "2023-12-15T13:45:00Z",
      "window_end": "2023-12-15T14:26:00Z",
      "window_start": "2023-12-15T13:32:00Z",
      "inhold": false,
      "tbdtime": false,
      "tbddate": false,
      "probability": null,
      "holdreason": "",
      "failreason": "",
      "hashtag": null,
      "launch_service_provider": {
        "id": 88,
        "url": "https://ll.thespacedevs.com/2.0.0/agencies/88/",
        "name": "China Aerospace Science and Technology Corporation",
        "type": "Government"
      },
      "rocket": {
        "id": 7798,
        "configuration": {
          "id": 128,
          "launch_library_id": 116,
          "url": "https://ll.thespacedevs.com/2.0.0/config/launcher/128/",
          "name": "Long March 5",
          "family": "Long March 5",
          "full_name": "Long March 5",
          "variant": ""
        }
      },
      "mission": {
        "id": 6702,
        "launch_library_id": null,
        "name": "Unknown Payload",
        "description": "?",
        "launch_designator": null,
        "type": "Unknown",
        "orbit": { "id": 25, "name": "Unknown", "abbrev": "N/A" }
      },
      "pad": {
        "id": 175,
        "url": "https://ll.thespacedevs.com/2.0.0/pad/175/",
        "agency_id": null,
        "name": "101",
        "info_url": null,
        "wiki_url": "https://en.wikipedia.org/wiki/Wenchang_Spacecraft_Launch_Site",
        "map_url": "https://www.google.com/maps?q=19.614334,110.951011",
        "latitude": "19.614334",
        "longitude": "110.951011",
        "location": {
          "id": 8,
          "url": "https://ll.thespacedevs.com/2.0.0/location/8/",
          "name": "Wenchang Space Launch Site, People's Republic of China",
          "country_code": "CHN",
          "map_image": "https://spacelaunchnow-prod-east.nyc3.digitaloceanspaces.com/media/launch_images/location_8_20200803142445.jpg",
          "total_launch_count": 24,
          "total_landing_count": 0
        },
        "map_image": "https://spacelaunchnow-prod-east.nyc3.digitaloceanspaces.com/media/launch_images/pad_175_20200803143424.jpg",
        "total_launch_count": 9
      },
      "webcast_live": false,
      "image": "https://spacelaunchnow-prod-east.nyc3.digitaloceanspaces.com/media/launcher_images/long2520march25205_image_20191228095452.jpg",
      "infographic": null,
      "program": []
    },
    {
      "id": "1d374bef-0e4e-4b3f-b45b-25c14aaa2b0e",
      "url": "https://ll.thespacedevs.com/2.0.0/launch/1d374bef-0e4e-4b3f-b45b-25c14aaa2b0e/",
      "launch_library_id": null,
      "slug": "falcon-9-block-5-ovzon-3",
      "name": "Falcon 9 Block 5 | Ovzon-3",
      "status": { "id": 2, "name": "TBD" },
      "net": "2023-12-15T20:46:00Z",
      "window_end": "2023-12-15T23:46:00Z",
      "window_start": "2023-12-15T20:46:00Z",
      "inhold": false,
      "tbdtime": false,
      "tbddate": false,
      "probability": null,
      "holdreason": "",
      "failreason": "",
      "hashtag": null,
      "launch_service_provider": {
        "id": 121,
        "url": "https://ll.thespacedevs.com/2.0.0/agencies/121/",
        "name": "SpaceX",
        "type": "Commercial"
      },
      "rocket": {
        "id": 7774,
        "configuration": {
          "id": 164,
          "launch_library_id": 188,
          "url": "https://ll.thespacedevs.com/2.0.0/config/launcher/164/",
          "name": "Falcon 9",
          "family": "Falcon",
          "full_name": "Falcon 9 Block 5",
          "variant": "Block 5"
        }
      },
      "mission": {
        "id": 6292,
        "launch_library_id": null,
        "name": "Ovzon-3",
        "description": "Ovzon 3 is a planned small communications satellite of the Swedish / US company Ovzon .\r\n\r\nThe satellite was ordered in December 2018 from Maxar Technologies to meet the demand for increased mobile broadband connectivity in under-served regions. Ovzon selected the new mid-size SSL-500 (Legion class) platform for its first satellite. The satellite will be equipped with a third party built central on-board processor (OBP) attached to high-performance steerable Ku-band beams.",
        "launch_designator": null,
        "type": "Communications",
        "orbit": {
          "id": 2,
          "name": "Geostationary Transfer Orbit",
          "abbrev": "GTO"
        }
      },
      "pad": {
        "id": 80,
        "url": "https://ll.thespacedevs.com/2.0.0/pad/80/",
        "agency_id": 121,
        "name": "Space Launch Complex 40",
        "info_url": null,
        "wiki_url": "https://en.wikipedia.org/wiki/Cape_Canaveral_Air_Force_Station_Space_Launch_Complex_40",
        "map_url": "https://www.google.com/maps?q=28.56194122,-80.57735736",
        "latitude": "28.56194122",
        "longitude": "-80.57735736",
        "location": {
          "id": 12,
          "url": "https://ll.thespacedevs.com/2.0.0/location/12/",
          "name": "Cape Canaveral, FL, USA",
          "country_code": "USA",
          "map_image": "https://spacelaunchnow-prod-east.nyc3.digitaloceanspaces.com/media/launch_images/location_12_20200803142519.jpg",
          "total_launch_count": 924,
          "total_landing_count": 40
        },
        "map_image": "https://spacelaunchnow-prod-east.nyc3.digitaloceanspaces.com/media/launch_images/pad_80_20200803143323.jpg",
        "total_launch_count": 215
      },
      "webcast_live": false,
      "image": "https://spacelaunchnow-prod-east.nyc3.digitaloceanspaces.com/media/launcher_images/falcon_9_image_20230807133459.jpeg",
      "infographic": null,
      "program": []
    },
    {
      "id": "0a399298-8e59-4ad3-80bd-3e211dff7596",
      "url": "https://ll.thespacedevs.com/2.0.0/launch/0a399298-8e59-4ad3-80bd-3e211dff7596/",
      "launch_library_id": null,
      "slug": "hyperbola-1-unknown-payload",
      "name": "Hyperbola-1 | Unknown Payload",
      "status": { "id": 1, "name": "Go" },
      "net": "2023-12-16T06:00:00Z",
      "window_end": "2023-12-16T12:00:00Z",
      "window_start": "2023-12-16T06:00:00Z",
      "inhold": false,
      "tbdtime": false,
      "tbddate": false,
      "probability": null,
      "holdreason": "",
      "failreason": "",
      "hashtag": null,
      "launch_service_provider": {
        "id": 274,
        "url": "https://ll.thespacedevs.com/2.0.0/agencies/274/",
        "name": "iSpace",
        "type": "Commercial"
      },
      "rocket": {
        "id": 8145,
        "configuration": {
          "id": 193,
          "launch_library_id": 222,
          "url": "https://ll.thespacedevs.com/2.0.0/config/launcher/193/",
          "name": "Hyperbola-1",
          "family": "Hyperbola",
          "full_name": "Hyperbola-1",
          "variant": "1"
        }
      },
      "mission": {
        "id": 6704,
        "launch_library_id": null,
        "name": "Unknown Payload",
        "description": "?",
        "launch_designator": null,
        "type": "Unknown",
        "orbit": { "id": 25, "name": "Unknown", "abbrev": "N/A" }
      },
      "pad": {
        "id": 21,
        "url": "https://ll.thespacedevs.com/2.0.0/pad/21/",
        "agency_id": null,
        "name": "Launch Area 95A",
        "info_url": null,
        "wiki_url": "https://en.wikipedia.org/wiki/Jiuquan_Satellite_Launch_Center",
        "map_url": "https://www.google.com/maps?q=40.969117,100.343333",
        "latitude": "40.969117",
        "longitude": "100.343333",
        "location": {
          "id": 17,
          "url": "https://ll.thespacedevs.com/2.0.0/location/17/",
          "name": "Jiuquan Satellite Launch Center, People's Republic of China",
          "country_code": "CHN",
          "map_image": "https://spacelaunchnow-prod-east.nyc3.digitaloceanspaces.com/media/launch_images/location_17_20200803142429.jpg",
          "total_launch_count": 213,
          "total_landing_count": 0
        },
        "map_image": "https://spacelaunchnow-prod-east.nyc3.digitaloceanspaces.com/media/launch_images/pad_21_20200803143253.jpg",
        "total_launch_count": 46
      },
      "webcast_live": false,
      "image": "https://spacelaunchnow-prod-east.nyc3.digitaloceanspaces.com/media/launcher_images/hyperbola-1_image_20230403194326.png",
      "infographic": null,
      "program": []
    },
    {
      "id": "d524b397-7670-4183-b807-03a4c0d705de",
      "url": "https://ll.thespacedevs.com/2.0.0/launch/d524b397-7670-4183-b807-03a4c0d705de/",
      "launch_library_id": null,
      "slug": "soyuz-21bfregat-m-arktika-m-no2",
      "name": "Soyuz 2.1b/Fregat-M | Arktika-M No.2",
      "status": { "id": 1, "name": "Go" },
      "net": "2023-12-16T09:17:00Z",
      "window_end": "2023-12-16T09:17:00Z",
      "window_start": "2023-12-16T09:17:00Z",
      "inhold": false,
      "tbdtime": false,
      "tbddate": false,
      "probability": null,
      "holdreason": "",
      "failreason": "",
      "hashtag": null,
      "launch_service_provider": {
        "id": 63,
        "url": "https://ll.thespacedevs.com/2.0.0/agencies/63/",
        "name": "Russian Federal Space Agency (ROSCOSMOS)",
        "type": "Government"
      },
      "rocket": {
        "id": 8003,
        "configuration": {
          "id": 134,
          "launch_library_id": 153,
          "url": "https://ll.thespacedevs.com/2.0.0/config/launcher/134/",
          "name": "Soyuz 2.1b/Fregat-M",
          "family": "Soyuz",
          "full_name": "Soyuz 2.1b Fregat-M",
          "variant": "Fregat-M"
        }
      },
      "mission": {
        "id": 6538,
        "launch_library_id": null,
        "name": "Arktika-M No.2",
        "description": "Arktika-M (\"Arctic-M\") is a series of Earh observation satellites which will gather meteorological and hydrological data on polar region. Arktika-M satellites will also provide communication services for the region.",
        "launch_designator": null,
        "type": "Earth Science",
        "orbit": { "id": 0, "name": "Elliptical Orbit", "abbrev": "Elliptical" }
      },
      "pad": {
        "id": 20,
        "url": "https://ll.thespacedevs.com/2.0.0/pad/20/",
        "agency_id": null,
        "name": "31/6",
        "info_url": null,
        "wiki_url": "https://en.wikipedia.org/wiki/Baikonur_Cosmodrome_Site_31",
        "map_url": "https://www.google.com/maps?q=45.996034,63.564003",
        "latitude": "45.996034",
        "longitude": "63.564003",
        "location": {
          "id": 15,
          "url": "https://ll.thespacedevs.com/2.0.0/location/15/",
          "name": "Baikonur Cosmodrome, Republic of Kazakhstan",
          "country_code": "KAZ",
          "map_image": "https://spacelaunchnow-prod-east.nyc3.digitaloceanspaces.com/media/launch_images/location_15_20200803142517.jpg",
          "total_launch_count": 1544,
          "total_landing_count": 0
        },
        "map_image": "https://spacelaunchnow-prod-east.nyc3.digitaloceanspaces.com/media/launch_images/pad_20_20200803143516.jpg",
        "total_launch_count": 411
      },
      "webcast_live": false,
      "image": "https://spacelaunchnow-prod-east.nyc3.digitaloceanspaces.com/media/launcher_images/soyuz_2.1b2ffr_image_20230802085359.jpg",
      "infographic": null,
      "program": []
    },
    {
      "id": "2a29a629-f28c-4fc4-8e5f-48e959e0a5b1",
      "url": "https://ll.thespacedevs.com/2.0.0/launch/2a29a629-f28c-4fc4-8e5f-48e959e0a5b1/",
      "launch_library_id": null,
      "slug": "pslv-dl-xposat",
      "name": "PSLV-DL | XPoSat",
      "status": { "id": 2, "name": "TBD" },
      "net": "2023-12-28T02:00:00Z",
      "window_end": "2023-12-28T06:00:00Z",
      "window_start": "2023-12-28T02:00:00Z",
      "inhold": false,
      "tbdtime": false,
      "tbddate": false,
      "probability": null,
      "holdreason": "",
      "failreason": "",
      "hashtag": null,
      "launch_service_provider": {
        "id": 31,
        "url": "https://ll.thespacedevs.com/2.0.0/agencies/31/",
        "name": "Indian Space Research Organization",
        "type": "Government"
      },
      "rocket": {
        "id": 7562,
        "configuration": {
          "id": 178,
          "launch_library_id": 215,
          "url": "https://ll.thespacedevs.com/2.0.0/config/launcher/178/",
          "name": "PSLV-DL",
          "family": "PSLV",
          "full_name": "PSLV-DL",
          "variant": "DL"
        }
      },
      "mission": {
        "id": 6495,
        "launch_library_id": null,
        "name": "XPoSat",
        "description": "XPoSat (X-ray Polarimeter Satellite) is India’s first dedicated polarimetry mission to study various dynamics of bright astronomical X-ray sources in extreme conditions. The spacecraft will carry two scientific payloads in a low earth orbit. The primary payload POLIX (Polarimeter Instrument in X-rays) will measure the polarimetry parameters (degree and angle of polarization) in medium X-ray energy range of 8-30 keV photons of astronomical origin. The XSPECT (X-ray Spectroscopy and Timing) payload will give spectroscopic information in the energy range of 0.8-15 keV.",
        "launch_designator": null,
        "type": "Astrophysics",
        "orbit": { "id": 8, "name": "Low Earth Orbit", "abbrev": "LEO" }
      },
      "pad": {
        "id": 50,
        "url": "https://ll.thespacedevs.com/2.0.0/pad/50/",
        "agency_id": 31,
        "name": "Satish Dhawan Space Centre First Launch Pad",
        "info_url": null,
        "wiki_url": "https://en.wikipedia.org/wiki/Satish_Dhawan_Space_Centre_First_Launch_Pad",
        "map_url": "https://www.google.com/maps?q=13.733,80.235",
        "latitude": "13.733",
        "longitude": "80.235",
        "location": {
          "id": 14,
          "url": "https://ll.thespacedevs.com/2.0.0/location/14/",
          "name": "Satish Dhawan Space Centre, India",
          "country_code": "IND",
          "map_image": "https://spacelaunchnow-prod-east.nyc3.digitaloceanspaces.com/media/launch_images/location_14_20200803142403.jpg",
          "total_launch_count": 92,
          "total_landing_count": 0
        },
        "map_image": "https://spacelaunchnow-prod-east.nyc3.digitaloceanspaces.com/media/launch_images/pad_50_20200803143457.jpg",
        "total_launch_count": 57
      },
      "webcast_live": false,
      "image": "https://spacelaunchnow-prod-east.nyc3.digitaloceanspaces.com/media/launcher_images/pslv-dl_image_20191201202351.jpeg",
      "infographic": null,
      "program": []
    }
  ]
}
